<?xml version="1.0" encoding="UTF-8" standalone="no"?>
<svg
   xmlns:dc="http://purl.org/dc/elements/1.1/"
   xmlns:cc="http://creativecommons.org/ns#"
   xmlns:rdf="http://www.w3.org/1999/02/22-rdf-syntax-ns#"
   xmlns:svg="http://www.w3.org/2000/svg"
   xmlns="http://www.w3.org/2000/svg"
   width="64"
   height="64"
   viewBox="0 0 63.999999 63.999999"
   id="svg2"
   version="1.1">
  <metadata
     id="metadata13">
    <rdf:RDF>
      <cc:Work
         rdf:about="">
        <dc:format>image/svg+xml</dc:format>
        <dc:type
           rdf:resource="http://purl.org/dc/dcmitype/StillImage" />
        <dc:title></dc:title>
      </cc:Work>
    </rdf:RDF>
  </metadata>
  <defs
     id="defs11" />
  <g
     id="g6">
    <circle
       style="opacity:1;fill:#00bb00"
       id="path4390"
       cx="32.727058"
       cy="31.1457"
       r="25.950588" />
    <circle
       style="opacity:1;fill:#ffffff"
       id="path4400"
       cx="34.224396"
       cy="29.4345"
       r="20" />
    <path
       style="fill:#00ff00;fill-opacity:1;fill-rule:evenodd;stroke:none;stroke-width:0.1;stroke-linecap:butt;stroke-linejoin:miter;stroke-miterlimit:4;stroke-dasharray:none;stroke-opacity:1"
       d="m 25.0718,20 0,24 20.7846,-12 z"
       transform="translate(4,-3)"
       id="path4" />
  </g>
  <path
     style="fill:#0000ff;stroke-width:0.0744186"
     d="M 31.47907,57.0356 C 29.693979,56.883688 29.164272,56.822594 28.25211,56.663417 25.459031,56.176011 22.504857,55.131016 20.141738,53.794493 12.698591,49.58483 7.8512768,42.241604 6.9585852,33.823256 c -0.1429665,-1.348217 -0.1429665,-4.009923 0,-5.35814 0.5513373,-5.199276 2.6001244,-10.014869 5.9523218,-13.990697 0.925707,-1.097923 2.785216,-2.899077 3.835034,-3.714685 5.633188,-4.3764445 12.75172,-6.2782984 19.682352,-5.2585215 9.639138,1.4183079 17.67586,8.0838005 20.804722,17.2550075 0.969206,2.8409 1.371636,5.301885 1.371636,8.387966 0,2.379564 -0.211739,4.163042 -0.750992,6.325581 -1.791595,7.184754 -6.730492,13.376387 -13.351333,16.737856 -2.92865,1.486905 -5.643479,2.307002 -8.883718,2.683599 -0.949867,0.110397 -3.49552,0.199185 -4.139538,0.144378 z m 4.204651,-7.626537 c 8.115376,-0.613051 14.963723,-5.931402 17.533267,-13.616142 0.756325,-2.261944 0.992843,-3.777132 0.992843,-6.360363 0,-1.998397 -0.08763,-2.867081 -0.450413,-4.465116 C 52.018462,17.298712 45.878042,11.330832 38.140623,9.7875204 36.716342,9.5034323 35.864741,9.4256969 34.195349,9.4273901 c -3.418153,0.00347 -6.284792,0.7083379 -9.316637,2.2908459 -1.814769,0.94724 -3.285937,2.032218 -4.791879,3.533984 -3.091792,3.083219 -5.014515,6.890079 -5.696161,11.278013 -0.198452,1.277488 -0.198452,4.527162 0,5.804651 0.559901,3.60423 1.960386,6.81756 4.200243,9.637209 0.690177,0.868832 2.215108,2.401156 3.064899,3.07976 3.968796,3.169297 9.012918,4.736052 14.027907,4.35721 z"
     id="path17" />
  <path
     style="fill:#0000ff;stroke-width:0.0744186"
     d="m 29.097674,29.029325 c 0,-6.552175 0.02031,-11.913046 0.04513,-11.913046 0.02482,0 4.665284,2.667178 10.31214,5.927063 8.235001,4.754 10.247578,5.944983 10.168824,6.017611 -0.054,0.0498 -4.585628,2.677873 -10.07028,5.840159 -5.484651,3.162285 -10.08093,5.815231 -10.213953,5.895434 l -0.241861,0.145826 z"
     id="path19" />
</svg>
